…
#> # A tibble: 8 × 8
#>   column_name column_type min_value   max_value min_date   max_date   n_distinct
#>   <chr>       <chr>           <dbl>       <dbl> <date>     <date>          <int>
#> 1 year        numeric        1952        2.01e3 NA         NA                 12
#> 2 lifeExp     numeric          23.6      8.26e1 NA         NA               1626
#> 3 pop         numeric       60011        1.32e9 NA         NA               1704
#> 4 gdpPercap   numeric         241.       1.14e5 NA         NA               1704
#> 5 date        date             NA       NA      1952-01-01 2007-01-01         12
#> 6 country     categorical      NA       NA      NA         NA                142
#> 7 continent   categorical      NA       NA      NA         NA                  5
#> 8 prout       categorical      NA       NA      NA         NA                  0
#> # ℹ 1 more variable: created_at <dttm>
#> 
#> $distinct_values
#> # A tibble: 147 × 2
#>    column_name value      
#>    <chr>       <chr>      
#>  1 country     Afghanistan
#>  2 country     Albania    
#>  3 country     Algeria    
#>  4 country     Angola     
#>  5 country     Argentina  
#>  6 country     Australia  
#>  7 country     Austria    
#>  8 country     Bahrain    
#>  9 country     Bangladesh 
#> 10 country     Belgium    
#> # ℹ 137 more rows
```
…
